{
  "name": "CredentialCard",
  "description": "An asset named CredentialCard",
  "plural": "CredentialCard",
  "base": "PersistedModel",
  "idInjection": false,
  "options": {
    "validateUpsert": true,
    "composer": {
      "type": "asset",
      "namespace": "org.example.biznet",
      "name": "CredentialCard",
      "fqn": "org.example.biznet.CredentialCard",
      "abstract": false
    }
  },
  "properties": {
    "$class": {
      "type": "string",
      "default": "org.example.biznet.CredentialCard",
      "required": false,
      "description": "The class identifier for this type"
    },
    "credId": {
      "type": "string",
      "id": true,
      "description": "The instance identifier for this type",
      "required": true
    },
    "cardDescription": {
      "type": "string",
      "required": true
    },
    "active": {
      "type": "boolean",
      "required": true
    }
  },
  "validations": [],
  "relations": {},
  "acls": [],
  "methods": []
}