{
  "name": "VerifyCredential",
  "description": "A transaction named VerifyCredential",
  "plural": "VerifyCredential",
  "base": "PersistedModel",
  "idInjection": false,
  "options": {
    "validateUpsert": true,
    "composer": {
      "type": "transaction",
      "namespace": "org.example.biznet",
      "name": "VerifyCredential",
      "fqn": "org.example.biznet.VerifyCredential",
      "abstract": false
    }
  },
  "properties": {
    "$class": {
      "type": "string",
      "default": "org.example.biznet.VerifyCredential",
      "required": false,
      "description": "The class identifier for this type"
    },
    "cred": {
      "type": "any",
      "description": "The identifier of an instance of cred",
      "required": true
    },
    "transactionId": {
      "type": "string",
      "id": true,
      "description": "The instance identifier for this type",
      "required": false,
      "generated": true
    },
    "timestamp": {
      "type": "date",
      "required": false
    }
  },
  "validations": [],
  "relations": {},
  "acls": [],
  "methods": [],
  "forceId": true
}